[
  {
    "id": "src.main",
    "name": "main",
    "stats": {
      "size": 571630,
      "gzipSize": 142238
    }
  },
  {
    "id": "node_modules.main",
    "name": "node_modules [main]",
    "stats": {
      "size": 142911,
      "gzipSize": 33968
    }
  },
  {
    "id": "node_modules.async",
    "name": "node_modules [async]",
    "stats": {
      "size": 11779,
      "gzipSize": 3921
    }
  },
  {
    "id": "atlaskit.core.main",
    "name": "main",
    "stats": {
      "size": 24927,
      "gzipSize": 6874
    }
  },
  {
    "id": "atlaskit.media.main",
    "name": "main",
    "stats": {
      "size": 17314,
      "gzipSize": 4819
    }
  },
  {
    "id": "atlaskit.media.async",
    "name": "async",
    "stats": {
      "size": 1684,
      "gzipSize": 726
    }
  },
  {
    "id": "combined.main",
    "name": "main",
    "stats": {
      "size": 756133,
      "gzipSize": 187838
    }
  },
  {
    "id": "combined.async",
    "name": "async",
    "stats": {
      "size": 13403,
      "gzipSize": 4440
    }
  }
]