[
  {
    "id": "src.main",
    "name": "main",
    "stats": {
      "size": 184927,
      "gzipSize": 42434
    }
  },
  {
    "id": "node_modules.main",
    "name": "node_modules [main]",
    "stats": {
      "size": 142151,
      "gzipSize": 39972
    }
  },
  {
    "id": "node_modules.async",
    "name": "node_modules [async]",
    "stats": {
      "size": 42766,
      "gzipSize": 13531
    }
  },
  {
    "id": "atlaskit.core.main",
    "name": "main",
    "stats": {
      "size": 211630,
      "gzipSize": 47553
    }
  },
  {
    "id": "combined.main",
    "name": "main",
    "stats": {
      "size": 537760,
      "gzipSize": 132444
    }
  },
  {
    "id": "combined.async",
    "name": "async",
    "stats": {
      "size": 42766,
      "gzipSize": 13531
    }
  }
]